%YAML 1.1
%TAG !u! tag:unity3d.com,2011:
--- !u!1001 &100100000
Prefab:
  m_ObjectHideFlags: 1
  serializedVersion: 2
  m_Modification:
    m_TransformParent: {fileID: 0}
    m_Modifications: []
    m_RemovedComponents: []
  m_ParentPrefab: {fileID: 0}
  m_RootGameObject: {fileID: 1191939059219182}
  m_IsPrefabParent: 1
--- !u!1 &1191939059219182
GameObject:
  m_ObjectHideFlags: 0
  m_PrefabParentObject: {fileID: 0}
  m_PrefabInternal: {fileID: 100100000}
  serializedVersion: 5
  m_Component:
  - component: {fileID: 4692270080852276}
  - component: {fileID: 114440971532531780}
  m_Layer: 0
  m_Name: Worm Growth base
  m_TagString: Growth
  m_Icon: {fileID: 0}
  m_NavMeshLayer: 0
  m_StaticEditorFlags: 0
  m_IsActive: 1
--- !u!4 &4692270080852276
Transform:
  m_ObjectHideFlags: 1
  m_PrefabParentObject: {fileID: 0}
  m_PrefabInternal: {fileID: 100100000}
  m_GameObject: {fileID: 1191939059219182}
  m_LocalRotation: {x: 0, y: 0, z: 0, w: 1}
  m_LocalPosition: {x: 0, y: 0, z: 0}
  m_LocalScale: {x: 1, y: 1, z: 1}
  m_Children: []
  m_Father: {fileID: 0}
  m_RootOrder: 0
  m_LocalEulerAnglesHint: {x: 0, y: 0, z: 0}
--- !u!114 &114440971532531780
MonoBehaviour:
  m_ObjectHideFlags: 1
  m_PrefabParentObject: {fileID: 0}
  m_PrefabInternal: {fileID: 100100000}
  m_GameObject: {fileID: 1191939059219182}
  m_Enabled: 1
  m_EditorHideFlags: 0
  m_Script: {fileID: 11500000, guid: d5810e177392a405287e96519b9fc4d0, type: 3}
  m_Name: 
  m_EditorClassIdentifier: 
  wormGrowthSectionPrefab: {fileID: 1456668591723496, guid: 99c147b67b681493f9856be1249e51bd,
    type: 2}
  headPrefab: {fileID: 1896308455551446, guid: bd9207e93e0de4bc3b3056c79a005ad3, type: 2}
  radialSegmentCount: 35
  heightSegmentCount: 10
  lengthPerGrowMeters: 0.05
  growSpawnIntervalSeconds: 0.3
  maxFacingAngleDeviationDegrees: 40
